Module 1: Tabular Data
…
# Get all CO2-related stressors from F_satellite matrix
co2 <- exio |>
    filter(matrix == "F_satellite") |>
    filter(grepl("CO2|carbon dioxide", stressor, ignore.case = TRUE)) |>
    collect()  # Collect data upfront to avoid connection issues

co2

# A tibble: 973,538 × 8
   stressor               region sector          value unit   year format matrix
   <chr>                  <chr>  <chr>           <dbl> <chr> <dbl> <chr>  <chr> 
 1 CO2 - combustion - air AT     Cultivation o… 2.27e8 kg     1995 ixi    F_sat…
 2 CO2 - combustion - air AT     Cultivation o… 2.16e8 kg     1995 ixi    F_sat…
 3 CO2 - combustion - air AT     Cultivation o… 1.01e8 kg     1995 ixi    F_sat…
 4 CO2 - combustion - air AT     Cultivation o… 4.98e7 kg     1995 ixi    F_sat…
 5 CO2 - combustion - air AT     Cultivation o… 1.10e7 kg     1995 ixi    F_sat…
 6 CO2 - combustion - air AT     Cultivation o… 1.13e4 kg     1995 ixi    F_sat…
 7 CO2 - combustion - air AT     Cultivation o… 1.74e6 kg     1995 ixi    F_sat…
 8 CO2 - combustion - air AT     Cattle farming 6.79e7 kg     1995 ixi    F_sat…
 9 CO2 - combustion - air AT     Pigs farming   4.87e7 kg     1995 ixi    F_sat…
10 CO2 - combustion - air AT     Poultry farmi… 4.62e7 kg     1995 ixi    F_sat…
# ℹ 973,528 more rows
…
filter the co2 data down to just these top countries, and plot thier total co2 emissions by year

library(ggplot2)

co2_top5_filtered <- co2 |>
    filter(region %in% co2_top5$region) |>
    group_by(region, year) |>
    summarize(total_co2 = sum(value, na.rm = TRUE), .groups = "drop")
co2_top5_filtered

# A tibble: 140 × 3
   region  year total_co2
   <chr>  <dbl>     <dbl>
 1 CN      1995   1.43e13
 2 CN      1996   5.74e12
 3 CN      1997   5.81e12
 4 CN      1998   5.96e12
 5 CN      1999   6.06e12
 6 CN      2000   6.16e12
 7 CN      2001   6.56e12
 8 CN      2002   6.98e12
 9 CN      2003   7.88e12
10 CN      2004   9.12e12
# ℹ 130 more rows
…
